系统设置
=========================================================

说明
--------------------------------------

    1. API地址: http://47.114.129.62:18000
    2. <(?P<pk>[0-9]+)> 在此代表id

安全审计-登录日志
--------------------------------

- GET api/system/login/event/?page=1&page_size=2

- 请求参数::

    {
        "id": 2 # id(编号) | int | 选填
        "username": "username" # 用户名 | str | 选填 | 支持模糊搜索
        "slogin_date": "2020-09-08 14:24:37" # 登录开始时间 | time | 选填 | yyyy-MM-dd HH:mm:ss
        "elogin_date": "2020-09-08 14:24:37" # 登录结束时间 | time | 选填 | yyyy-MM-dd HH:mm:ss

    }

- 响应结果::

    {
        "count": 11,
        "next": "http://127.0.0.1:8000/api/system/login/event/?page=2&page_size=1&username=admin",
        "previous": null,
        "results": [
            {
                "id": 11,
                "username": "admin", # 用户名
                "login_date": "2021-09-18 11:04:26", # 登录时间
                "terminal_type": "PC", # 终端类型
                "browser_type": "Chrome 93.0.4577", # 浏览器版本
                "os": "Windows 10", # 操作系统
                "equipment_name": null, # 设备名称
                "mac_address": null, # mac地址
                "login_ip": "127.0.0.1", # 登录IP
                "user": 1
            }
        ]
    }


安全审计-登录日志-数据导出
---------------------------------------------

- GET api/system/login/event/export/

- 请求参数::

    {
         "ids":1,2 # 要导出的ids | str | 选填 | 无此参数导出搜索数据,可加搜索参数, 有则导出指定数据 | id 按照,分割
        "username": "username" # 用户名 | str | 选填 | 支持模糊搜索
        "slogin_date": "2020-09-08 14:24:37" # 登录开始时间 | time | 选填 | yyyy-MM-dd HH:mm:ss
        "elogin_date": "2020-09-08 14:24:37" # 登录结束时间 | time | 选填 | yyyy-MM-dd HH:mm:ss

    }


安全审计-操作记录
----------------------------------------------------

- GET /api/system/operation/log/

- 请求参数::

    {
        "creator": "username",  #  操作者 | str | 选填
        "sinsert_tm": "2020-09-08 14:24:37" # 操作开始时间 | time | 选填 | yyyy-MM-dd HH:mm:ss
        "einsert_tm": "2020-09-08 14:24:37" # 操作结束时间 | time | 选填 | yyyy-MM-dd HH:mm:ss
    }


- 响应结果::

    {
        "count": 124,
        "next": "http://127.0.0.1:8000/api/system/operation/log/?page=3&page_size=1",
        "previous": "http://127.0.0.1:8000/api/system/operation/log/?page_size=1",
        "results": [
            {
                "id": 123,
                "description": "",
                "modifier": null,
                "update_tm": "2021-09-24 15:38:41",
                "insert_tm": "2021-09-24 15:38:41", # 操作时间
                "request_modular": "源代码策略", # 操作模块
                "request_path": "/api/mgxx/code/job/", # 请求地址
                "request_body": "{\"job_name\": \"qq3\", \"query\": \"大数据\", \"scan_interval_min\": 1, \"remark\": \"备注\", \"store_type\": 1}", #请求参数
                "request_method": "POST", # 请方式
                "request_msg": null,
                "request_ip": "127.0.0.1", # 请求IP
                "request_browser": "Other",
                "response_code": "200",
                "request_location": " 本机地址",
                "request_os": "Other",
                "json_result": "{\"code\": 200, \"message\": \"新增成功!\"}",
                "status": true, #
                "handle_type": "新增策略-源代码", # 操作类型
                "creator": "admin" # 操作者
            }
        ]
    }

安全审计-操作记录-数据导出
----------------------------------------------

- GET /api/system/operation/log/export/

- 请求参数::

    {
        "ids":1,2 # 要导出的ids | str | 选填 | 无此参数导出搜索数据,可加搜索参数, 有则导出指定数据 | id 按照,分割
        "creator": "username",  #  操作者 | str | 选填
        "sinsert_tm": "2020-09-08 14:24:37" # 操作开始时间 | time | 选填 | yyyy-MM-dd HH:mm:ss
        "einsert_tm": "2020-09-08 14:24:37" # 操作结束时间 | time | 选填 | yyyy-MM-dd HH:mm:ss
    }



系统配置-系统信息-获取授权信息
----------------------------------------------------

- GET /api/mgxx/license/

- 响应结果::

    {
        "code": 200,
        "success": true,
        "data": {
            "insert_tm": "2021-09-07 15:08:40",
            "update_tm": "2021-09-18 16:44:39",
            "serial_code": "SD0L02320L1TH6510CS8",
            "expire_date": "2021-12-02 15:09:21" # 到期日期
        },
        "message": "查询成功！"
    }

系统配置-系统信息-添加授权信息
----------------------------------------------------

- POST /api/mgxx/license/
- 请求参数::

    {
        "license_key":"aFxHUzycddPVTuVhGZIsiuOAzVH3CN7iTvMoOJ3z/GznKJQro8I8sOdprVhU/4ERxui8uKjQZ+9cKhvunuZfd7l8kEvCOJSSoTFFjAV8uc/8HoNVY1tcXG//Q4LLqVx85+bqpYtCAJznMoHPTgs3XILi/YJrAphthTFcDZuRFnK3qDvoYY4DMfBNI4mnIiwWtjHk0zzTX4WgTboiWh7tbMkvz1BplRfRrXfI7H5F00eDc+JDe4K7yaTUuOVYNPJkWZicQg4hsd7DAvBKfYXXDOi1+lV0MeelNdV1fKVgtMzmdkPmWSagR+9s38rg2gXycw4WOPfIgS5kHp2WAj+f1g=="
    }
- 响应结果::

    {
        "code": 200,
        "success": true,
        "data": {
            "insert_tm": "2021-11-05 16:10:43",
            "update_tm": "2021-11-05 16:16:01",
            "serial_code": "BP1116LGAJB6TL7964E5",
            "expire_date": "2022-05-05 09:44:31", # 到期时间
            "days": 180 # 到期天数
        },
        "message": "新增成功!"
    }
